…
Verifique se há coerência nas variáveis criadas

``` r
var_sec <- select(variables$PNADc_2019,domicilioid,V2005, V2009,neto, neto_maior,filho_maior,filho_menor)   
var_sec
```

    ## # A tibble: 443,790 × 7
    ##    domicilioid V2005 V2009  neto neto_maior filho_maior filho_menor
    ##          <dbl> <int> <dbl> <dbl>      <dbl>       <dbl>       <dbl>
    ##  1 11000001601     1    44     0          0           0           0
    ##  2 11000001601     2    61     0          0           0           0
    ##  3 11000001601     4    26     0          0           1           0
    ##  4 11000001601     4    17     0          0           0           1
    ##  5 11000001601    10     6     1          0           0           0
    ##  6 11000001602     1    48     0          0           0           0
    ##  7 11000001603     1    54     0          0           0           0
    ##  8 11000001603     2    54     0          0           0           0
    ##  9 11000001603     4    29     0          0           1           0
    ## 10 11000001603    10    15     1          0           0           0
    ## # … with 443,780 more rows
…
